212784 804757
149276 281910
129020 817694
584118 260390
516262 105367
178497 432390
270841 68842
950255 421610
748932 589982
120391 549696
449897 665204
19135 429670
705123 864886
708270 364278
480198 915431
448670 103783
241507 173793
149223 990754
410778 176146
555220 103172
740977 313707
283646 194311
581061 912244
598427 350917
597342 964336
879664 241490
953774 590766
697341 814468
145065 762513
809462 216334
710860 128996
425087 774387
603848 955839
362733 472573
122619 990984
417324 788320
638765 621273
657121 397333
316304 726922
300642 376889
648336 872666
502860 46326
13683 626583
233599 809425
884278 558371
765722 870130
728626 58605
169564 135504
288180 281591
922377 331849
952874 834835
17385 932134
666927 384791
209784 955488
708750 388925
743624 310153
537940 115730
302284 199664
481872 94977
747480 331353
555446 545879
174020 357216
201930 74742
460861 892036
437813 845175
471100 154283
1150 441720
870664 723093
334846 960256
555570 486088
513382 194512
466214 556098
855645 775677
125445 893767
163196 499353
421672 127076
192288 378147
792714 492463
698023 942704
21743 294008
920748 5506
214570 400103
311744 37828
901218 227283
900977 52296
865219 866785
751494 996031
200489 113422
634506 693764
997408 111200
141520 303826
717813 247082
604064 487698
479836 344078
155034 469167
610465 747920
540572 470386
37500 976843
311842 779627
557383 713905
445212 106076
603875 142001
320632 778702
985976 766386
829582 35958
708121 884533
405427 19673
678047 376336
665717 361136
826515 875848
601330 151116
708736 524191
35854 483045
31228 880712
37192 976320
60171 903658
792262 143115
172703 249827
362426 273368
807711 766681
834056 204762
498590 632133
296265 31858
833024 143972
420356 517258
641910 104404
339633 935652
54136 714970
951036 140666
861987 105161
796158 666374
786778 697761
786167 91856
920322 867466
1323 308456
653854 11043
949584 145172
281438 440759
575025 449500
620699 617292
131100 472659
867195 149524
983710 868902
859745 279325
434818 170749
58855 759003
109128 132850
435744 379148
726813 848004
63930 775798
986521 475194
562654 7861
967968 742813
392366 586831
715219 743668
847049 591138
489209 491218
856012 110737
109603 494444
575585 64352
328644 779805
821481 793217
215672 653025
172141 575436
223239 717008
605930 89195
239870 539008
875888 86675
423134 752632
120781 19388
16720 300560
789069 827599
524127 642412
192913 151705
959298 491369
282074 490555
154350 205463
68244 300951
772074 749635
413613 353580
93589 265546
463445 254932
654148 738966
772244 642808
919242 7150
972781 119653
249746 860863
91459 869596
927271 429468
663571 553246
524706 388650
816675 130424
694659 908299
478825 185419
813648 161872
829580 846789
431155 637303
594781 262173
291868 40032
859364 760021
534092 624065
835624 385675
840602 263430
873092 642383
178365 952483
55482 972676
117242 601821
927720 981905
653599 622400
979089 945404
374963 498734
581342 226313
478889 758596
496422 947226
801430 699345
752210 54389
454209 456418
272138 107622
353821 3217
220423 314897
193106 164584
257694 109184
248830 630432
706192 482460
237993 805628
57358 751192
830783 574664
137449 202154
263412 813599
133658 987356
527344 88434
98476 398759
991029 183447
960373 508023
950637 532215
889154 510722
370911 24442
49967 590776
742499 138952
792710 404792
689216 28341
701144 120589
79869 564278
656262 461042
690830 376036
779107 487616
657167 903084
789392 275911
29452 870824
342295 408932
663258 178786
476017 222081
698595 518211
426492 836124
899052 40333
331103 678444
895397 851182
386179 377319
10092 151317
