706159 787709
439424 800619
170649 739951
277926 76590
561193 393578
662370 583012
798948 225823
454047 314418
523274 626709
580888 111493
534088 121414
377806 420874
208564 43841
50062 360348
672221 794940
196640 65939
454581 183290
764338 697527
455558 326965
430850 570763
158343 998151
957535 628961
599739 766737
507708 389552
712509 896277
961189 790847
716662 679208
711805 698880
216597 61983
113778 583098
753648 140591
901265 422049
591610 178745
472544 209714
231555 474777
596616 550334
137750 300249
60598 868790
720111 182382
337102 287295
692453 425616
150062 956185
758850 628569
365074 460014
57018 268914
703473 415548
123006 404797
716220 418492
550332 246175
198524 988067
624860 161663
700973 638123
290241 449367
140519 189918
786967 364452
399562 904225
354921 548980
892354 486642
309131 57484
391526 869145
392600 172092
969153 48827
668529 304882
675966 645272
390413 997617
12703 995301
939933 529244
978710 893458
789730 195919
299513 177724
80059 777363
114007 68234
158833 643582
967972 728655
724538 110327
109116 525670
601143 302465
661493 205471
647600 320404
637674 893221
564880 452445
384480 995886
25085 772846
733427 743357
291516 712887
972831 91581
96830 990890
788344 403561
877599 461156
453759 203277
787410 201404
568842 856117
236117 699173
442468 529534
631522 434516
701213 135704
263127 586187
975496 523874
321576 863653
281874 17702
717017 413453
627313 279588
549962 763426
320961 909509
730802 432037
228486 322302
598423 79555
697164 639312
906036 742633
786584 257363
833346 983773
123497 106411
822850 197566
937248 529914
944360 746172
590999 179136
715935 23220
905135 688122
747360 166005
63732 258583
388673 428079
599585 221307
991781 133761
673366 49275
120350 830809
28847 650556
5843 205044
41641 11856
650308 32254
676898 343243
839662 25344
16528 596555
686528 789900
459546 706160
397404 374437
697585 529837
690864 641412
478058 716754
824629 273962
701702 721482
575765 466799
919597 223065
276632 628761
197520 352860
467431 151577
587863 425498
858390 498397
153407 566534
684171 169708
148974 785338
129692 65348
835018 360889
561749 169822
168954 142329
911757 318041
24682 897269
365848 837087
977092 686669
571361 456559
998347 887731
420547 334739
680589 552603
756172 64439
799024 122857
698802 272314
353885 254027
218573 408844
500719 560377
913306 848989
920196 200743
988716 106586
990480 789469
765975 852039
128375 313230
521532 484010
792320 970465
74206 57795
297156 595147
45950 379796
271762 253116
94061 172863
357071 82396
304328 136346
66091 639425
735713 710984
453654 126095
296700 43429
613791 415454
241814 559237
959028 728684
135465 231458
413695 372197
192965 753771
658110 715107
554329 704955
886670 922036
648586 323763
364671 892672
314724 139535
613009 571968
346027 620028
707455 626250
297955 66796
582668 881782
241403 18899
487068 902028
909259 420357
381477 48939
823723 639330
303942 475607
664329 483350
802470 394182
178925 665931
758316 656110
878409 447979
147122 24166
657403 211665
879298 531975
617168 165077
593388 699566
137915 231257
514361 949420
849044 953709
447688 497829
652647 897031
952758 567742
26143 918029
689456 435473
83477 184681
945710 548912
59370 915345
501411 679987
88498 497307
31819 183358
427200 154700
378739 796612
499732 405768
60297 20732
426623 325131
