778977 404019
869052 275751
86203 527883
996771 711689
663397 915868
415413 925262
780936 425315
622267 712459
865251 195602
38989 117463
700199 425644
11583 45297
204446 235753
233014 881081
649112 171952
194464 40079
9641 205277
719000 990766
456837 794595
644483 156516
402637 790186
721601 711460
812578 761348
112571 981404
282721 693887
508125 527531
256802 89398
387235 637865
109760 836767
2617 313890
303518 950302
711047 240538
993913 66431
23088 652467
459043 445861
671364 59438
381899 610284
495408 843420
943173 926482
764488 196604
524700 803174
613402 66193
719970 793301
860436 711167
727087 133623
187017 560402
75032 838322
436437 453459
885817 388597
954154 578673
355383 353253
739791 369368
408727 152897
639664 538676
188467 458922
802653 732491
908882 7682
237034 73950
35325 367800
833621 615396
988706 992519
276301 609552
594305 751688
183740 311831
42848 499637
717846 894563
35960 9631
845370 751487
491394 842559
979701 921965
178169 672645
347053 561437
492198 594543
68636 297802
444853 835956
330166 769096
970909 466671
351646 442832
878872 158688
564502 966409
63795 128328
376718 766846
596387 102390
494078 305371
6945 643876
909860 288438
114081 132143
127642 967957
879196 238960
591827 339803
575421 716258
536174 638137
122663 317538
951560 196031
349419 750470
629662 985540
513533 610128
36518 670072
379189 558179
472368 293938
769275 627998
870450 901816
27774 500226
378996 414236
668736 897195
755294 604302
261529 743693
26817 518217
255854 833010
914712 801552
399163 465137
707663 576455
532825 117489
539226 575940
87507 302478
768664 636226
713365 53712
156431 801942
7904 243922
100023 424316
981795 682584
266324 857313
990314 715162
903708 375314
400809 589241
956964 159865
906547 689121
859946 641128
657292 861322
180191 380968
32628 184841
933315 108395
529069 169005
788062 433707
159171 135456
952220 37253
994124 466416
409543 235529
983862 118452
346706 92768
215031 26167
29264 736904
540077 781330
7211 528248
359693 987371
603983 204547
784554 610033
448870 212545
972447 708096
533092 899113
915728 760394
614751 194322
212501 438528
81304 404043
566271 327124
858728 645646
42086 542299
19616 873942
215185 11773
56592 251873
840771 172712
284872 592768
928026 326010
405204 516809
921277 746195
453032 751165
940911 931827
124978 836599
707699 777700
767627 765619
224474 240264
959400 943608
841677 742290
964318 970550
507529 825197
144006 766591
53393 103171
447822 23988
92446 156339
946173 609766
269654 230076
382790 389515
913986 53171
180328 442288
649023 893451
818446 801449
76177 714271
879126 420858
8469 629886
729756 212794
192002 48983
832463 959029
556050 811573
402271 455303
641395 179403
591113 714229
152238 553124
799766 947494
843706 682374
72196 281212
282450 511819
363804 537098
202345 313090
692251 992107
851466 251592
16233 768771
935699 34863
985386 503059
886949 227360
220842 622605
325222 955130
184917 374522
424983 578826
629361 528038
441208 761837
838037 879373
474991 667825
302937 104486
254826 649393
422207 941514
890792 670722
208605 78073
456446 147165
348705 405424
609445 383040
524047 823450
931745 342454
662509 314047
972916 822505
19015 369140
198773 861003
36292 315422
840782 328018
83884 111329
633037 428732
595596 717222
481976 748489
108568 484905
961846 431295
424619 916037
