911421 259989 525
6533 628930 509
221758 817270 509
238062 528805 470
963916 312087 525
132227 905886 525
472066 416884 444
831798 88311 509
184088 352423 443
238590 953131 525
375606 402554 436
513417 823813 509
232144 98165 443
60499 862381 525
354483 73057 443
295209 387703 441
74866 360213 443
921488 79698 525
429783 473217 444
182151 449248 449
282296 238689 407
899480 553405 525
509041 334783 449
56203 702999 509
47515 910220 525
546217 423007 470
445757 366212 449
625456 127287 470
448984 295493 449
546160 282435 470
31553 885631 525
361866 505017 449
435807 815683 509
978004 571758 525
196459 959762 525
791998 942840 525
800427 434439 509
928919 375671 525
182680 888291 525
965055 179637 525
82470 468173 449
775661 30644 509
956315 796651 525
432881 729091 509
200410 205814 355
252808 437024 449
817233 379123 509
961740 362693 525
895156 387465 525
335178 897161 525
124998 836368 509
272281 731109 509
653707 187894 509
70404 748053 509
202402 209114 373
783881 897852 525
569359 593267 434
529089 258119 470
174224 208936 373
59781 614571 470
426793 401144 449
280879 85822 443
324105 229765 443
74111 683800 509
842064 44500 525
794799 168836 509
921112 371854 525
807206 348113 509
329603 572129 470
724433 212487 509
809504 317476 509
408437 908925 525
64905 605826 470
999876 745347 525
525440 814501 509
590962 763565 509
486505 898143 525
544003 574775 452
567729 991003 525
291246 62321 443
149444 568272 470
803639 658671 504
833193 53560 509
799561 209047 509
549937 136038 470
355748 49791 443
609276 750653 509
497822 868313 525
887869 92659 525
402031 191868 443
436996 60173 449
940489 460234 525
322398 173946 443
326221 532961 470
953734 445889 525
261193 192193 443
663053 637213 429
275740 867055 525
588284 957628 525
899537 365279 525
465424 388684 449
651057 477328 509
883641 725340 525
118236 368067 443
271295 779473 509
840936 400723 525
260109 561409 470
232428 428192 449
271283 695320 509
670131 539192 509
245683 340951 407
39123 916715 525
546675 929578 525
244622 363265 441
79728 192757 383
479343 521039 470
479898 99655 449
777182 115606 509
702096 857878 525
666881 802222 504
332412 278657 389
73062 592552 470
798653 214684 509
125864 132462 344
816890 60282 509
126622 628285 509
800244 793840 468
963681 172824 525
974946 580363 525
552397 883323 525
473044 312314 449
220777 765182 509
954535 966008 414
430683 588247 470
309348 953436 525
746220 169612 509
680373 299619 509
565809 417392 470
492571 797060 509
467272 711005 509
853699 921123 476
302613 526391 470
421373 88938 449
956799 23375 525
233568 81972 443
291178 961278 525
16023 886325 525
590442 358486 470
723637 602430 509
880398 636442 525
131372 722690 509
944460 502800 525
344720 966195 525
870534 756416 525
464454 231933 449
572481 239199 470
382663 39670 443
303430 907075 525
588281 21574 470
242948 888041 525
298487 123760 443
851355 797744 525
512416 175915 470
415405 566844 470
892381 601203 525
666632 667960 367
711476 730893 411
118357 864158 525
366393 440825 449
779483 515473 509
930671 632910 525
947733 206170 525
354874 848258 525
988349 434180 525
222030 101394 386
992465 867694 507
530683 653224 509
958880 776789 525
408406 271843 441
56895 294604 443
414429 799139 509
843908 620209 525
682993 664669 442
190170 821430 509
95245 472718 449
371538 964782 525
494147 853771 525
462723 415756 444
139405 814757 509
523582 542870 408
466111 294567 449
140772 541323 470
214210 223222 386
364568 256470 441
776100 873727 525
642054 866447 525
676448 759296 504
644513 484072 509
376633 766054 509
634274 333046 509
823418 53529 509
612535 523713 452
411517 784857 509
944401 229628 525
471157 384064 449
747308 645226 504
342299 564165 470
293397 688586 509
589003 297772 470
304191 321350 384
714946 915945 525
533849 779166 509
32732 552336 470
291417 444878 449
665541 306992 509
187848 999328 525
610995 188401 470
479630 427269 444
453050 375077 449
206717 78594 383
752595 43807 509
855574 998323 507
372390 334226 441
554868 938069 525
94965 798297 509
609996 331778 470
630326 576238 509
485566 258210 449
790411 199160 509
424275 193257 449
193866 718241 509
29875 253925 443
773483 467179 509
2424 133699 354
2190 808388 509
35336 943423 525
198058 87820 383
412253 853016 525
146897 195659 383
46638 523601 470
373649 653921 509
709775 10405 509
9669 586540 470
869669 645989 525
497866 745407 509
952567 430377 525
300560 127358 443
963677 460329 525
653980 895617 525
112545 631384 509
927239 303692 525
940013 852938 507
962252 698367 525
11334 411218 449
246660 81408 443
835553 802521 450
293278 989668 525
379698 791074 509
218371 418889 449
892359 237557 525
892103 518857 525
298023 928702 525
410462 971934 525
317876 508530 449
663018 954738 525
