569828 249657 470
673890 526436 509
669305 773537 504
509819 429669 444
533397 682429 509
822522 837738 419
182418 914569 525
417088 242322 449
899663 167522 525
93141 381228 443
970017 919105 507
254192 264145 407
962572 524017 525
297229 285882 389
72229 814934 509
169526 193348 365
13428 624563 470
769522 692911 504
994555 931570 507
28873 830993 509
237082 902829 525
993945 300674 525
151402 744727 509
768220 113459 509
201195 433460 449
441798 597653 470
211102 703192 509
341876 121080 443
296092 179231 443
226937 528102 470
696772 380522 509
87098 996329 525
642257 208591 509
290302 907293 525
379252 167426 443
921474 458893 525
537035 690172 509
597549 267256 470
196447 534011 470
147313 821067 509
915293 569945 525
239210 260953 368
489518 68897 449
241850 210268 443
436012 886687 525
568375 57183 470
445745 159472 449
310428 73524 443
789188 216891 509
848168 496406 525
307726 527477 470
964539 736461 525
706200 146414 509
922529 715196 525
89075 2481 351
420448 203790 449
160595 179970 352
58491 986498 525
774342 314774 509
322731 12969 443
108498 470542 449
477594 459588 444
343202 521465 470
115092 167187 383
391020 938919 525
638736 150788 509
435008 628352 509
361448 324756 441
84199 457535 449
642699 830824 504
682630 813557 504
367965 260389 441
435383 164186 449
425315 499637 444
610187 396038 470
67919 495955 449
729548 484859 509
220952 780563 509
396444 127556 443
123304 51571 354
801336 567798 509
909157 774612 525
136221 324891 443
483660 78890 449
378838 327332 441
201688 126018 383
943466 579971 525
94731 864668 525
370547 392548 436
386005 420484 449
465927 828276 509
167026 117293 383
33287 582840 470
384024 438190 449
698881 529042 509
399474 345791 441
612174 451363 470
616430 165423 470
280629 756159 509
480000 374263 449
850556 87489 525
642534 881835 525
652214 956276 525
207410 117627 383
726691 262010 509
994436 945079 458
981007 381681 525
435054 782179 509
89699 450848 449
100063 395095 443
550500 947704 525
395341 324802 441
784617 992050 525
819531 231915 509
682005 808058 504
348993 548636 470
208394 126087 383
184129 661538 509
942898 276118 525
842518 86179 525
30543 238752 443
701936 847901 525
316350 104265 443
680116 195429 509
300825 57950 443
793115 131866 509
49887 452085 449
504413 477929 426
692798 528725 509
640437 910973 525
961447 673645 525
136242 945565 525
36591 637211 509
524391 293113 470
878963 226411 525
95251 322918 443
592434 21935 470
146747 301475 443
444596 80186 449
48866 284852 443
980455 94628 525
832129 775691 468
933146 709824 525
235302 535012 470
965436 815883 525
214084 771921 509
876871 558192 525
943499 726989 525
862466 261667 525
48587 275575 443
268986 46640 443
247616 378933 441
608778 366492 470
422878 187235 449
540263 593185 452
465325 652455 509
847986 376612 525
497405 848426 525
150886 564712 470
447890 759928 509
271621 719348 509
226312 8991 386
535253 240820 470
726901 263201 509
79081 163176 383
41638 789312 509
343102 656206 509
657665 388796 509
935346 331310 525
964741 47565 525
806042 975691 525
346001 196084 443
895697 889198 370
680144 153066 509
787815 83160 509
689128 118480 509
217589 81267 386
651188 412839 509
571462 969245 525
862753 578168 525
69193 208942 383
210412 277272 443
564307 367551 470
415719 661809 509
267514 489620 449
488821 959885 525
691996 924877 525
126375 48765 354
507603 264390 449
583484 529860 452
433392 871233 525
684257 336601 509
727682 217564 509
710627 959435 525
639431 504824 509
334577 904749 525
63685 68360 312
683012 159856 509
754903 273275 509
690188 922475 525
162940 722533 509
288376 701636 509
928538 435249 525
391174 600831 470
321194 165531 443
303161 78523 443
397786 276317 441
135006 591774 470
430610 685651 509
421783 13511 449
120894 577745 470
697114 73712 509
286702 920151 525
781782 515795 509
20105 560371 470
220777 525124 470
234914 657935 509
54013 791647 509
100062 362797 443
162193 300315 443
617101 767985 509
923228 714601 525
75459 613516 470
399187 241773 441
464987 97324 449
581985 280351 470
313731 130645 443
11681 918849 525
700286 964379 525
414951 417995 387
812356 716118 468
206370 215470 373
417440 364009 449
711917 453802 509
520238 335375 470
858100 262909 525
979030 111496 525
253829 182042 443
101824 978414 525
814906 84021 509
597227 218771 470
597607 130217 470
